Assignment 3
…
Let’s clean the data using tidytext. If you have trouble with this section, see the example shown in https://www.tidytextmining.com/tidytext.html

Create tokens using unnest_tokens. Make sure the data is in one-token-per-row format. Remove any stop words within the data. What are the most common words used overall?

tibble.tidy <- tibble %>% unnest_tokens(word, descriptions) 
tibble.tidy <- tibble.tidy %>% anti_join(stop_words)

Joining with `by = join_by(word)`

wordcount <- tibble.tidy %>% count(word, sort=T)
wordcount

# A tibble: 1,073 × 2
   word             n
   <chr>        <int>
 1 park            84
 2 hyde            75
 3 chicago         50
 4 kenwood         40
 5 street          34
 6 south           27
 7 oakland         25
 8 community       23
 9 lake            23
10 neighborhood    23
# ℹ 1,063 more rows
…
